<mxfile host="app.diagrams.net" modified="2023-07-20T02:41:38.123Z" agent="Mozilla/5.0 (Windows NT 10.0; Win64; x64) AppleWebKit/537.36 (KHTML, like Gecko) Chrome/114.0.0.0 Safari/537.36 Edg/114.0.1823.82" etag="vJKIQv-BqUSvaIdG8SJ5" version="21.6.3" type="gitlab">
  <diagram name="第 1 页" id="M_SjhSi308RYPp_q6gJZ">
    <mxGraphModel dx="541" dy="796" grid="1" gridSize="10" guides="1" tooltips="1" connect="1" arrows="1" fold="1" page="1" pageScale="1" pageWidth="827" pageHeight="1169" math="0" shadow="0">
      <root>
        <mxCell id="0" />
        <mxCell id="1" parent="0" />
        <mxCell id="piZKTH4yBA35tQuMOBxQ-1" value=":Object" style="shape=umlLifeline;perimeter=lifelinePerimeter;container=1;collapsible=0;recursiveResize=0;rounded=0;shadow=0;strokeWidth=1;" parent="1" vertex="1">
          <mxGeometry x="150" y="230" width="100" height="300" as="geometry" />
        </mxCell>
        <mxCell id="piZKTH4yBA35tQuMOBxQ-2" value="" style="points=[];perimeter=orthogonalPerimeter;rounded=0;shadow=0;strokeWidth=1;" parent="piZKTH4yBA35tQuMOBxQ-1" vertex="1">
          <mxGeometry x="45" y="70" width="10" height="190" as="geometry" />
        </mxCell>
        <mxCell id="piZKTH4yBA35tQuMOBxQ-3" value="dispatch" style="verticalAlign=bottom;startArrow=oval;endArrow=block;startSize=8;shadow=0;strokeWidth=1;rounded=0;" parent="piZKTH4yBA35tQuMOBxQ-1" target="piZKTH4yBA35tQuMOBxQ-2" edge="1">
          <mxGeometry relative="1" as="geometry">
            <mxPoint x="-15" y="70" as="sourcePoint" />
          </mxGeometry>
        </mxCell>
        <mxCell id="piZKTH4yBA35tQuMOBxQ-4" value="" style="points=[];perimeter=orthogonalPerimeter;rounded=0;shadow=0;strokeWidth=1;" parent="piZKTH4yBA35tQuMOBxQ-1" vertex="1">
          <mxGeometry x="50" y="120" width="10" height="80" as="geometry" />
        </mxCell>
        <mxCell id="piZKTH4yBA35tQuMOBxQ-5" value=":Object" style="shape=umlLifeline;perimeter=lifelinePerimeter;container=1;collapsible=0;recursiveResize=0;rounded=0;shadow=0;strokeWidth=1;" parent="1" vertex="1">
          <mxGeometry x="395" y="230" width="100" height="300" as="geometry" />
        </mxCell>
        <mxCell id="piZKTH4yBA35tQuMOBxQ-6" value="" style="points=[];perimeter=orthogonalPerimeter;rounded=0;shadow=0;strokeWidth=1;" parent="piZKTH4yBA35tQuMOBxQ-5" vertex="1">
          <mxGeometry x="45" y="80" width="10" height="160" as="geometry" />
        </mxCell>
        <mxCell id="piZKTH4yBA35tQuMOBxQ-7" value="return" style="verticalAlign=bottom;endArrow=open;dashed=1;endSize=8;exitX=0;exitY=0.95;shadow=0;strokeWidth=1;rounded=0;" parent="1" source="piZKTH4yBA35tQuMOBxQ-6" target="piZKTH4yBA35tQuMOBxQ-2" edge="1">
          <mxGeometry relative="1" as="geometry">
            <mxPoint x="370" y="386" as="targetPoint" />
          </mxGeometry>
        </mxCell>
        <mxCell id="piZKTH4yBA35tQuMOBxQ-8" value="dispatch" style="verticalAlign=bottom;endArrow=block;entryX=0;entryY=0;shadow=0;strokeWidth=1;rounded=0;" parent="1" source="piZKTH4yBA35tQuMOBxQ-2" target="piZKTH4yBA35tQuMOBxQ-6" edge="1">
          <mxGeometry relative="1" as="geometry">
            <mxPoint x="370" y="310" as="sourcePoint" />
          </mxGeometry>
        </mxCell>
        <mxCell id="piZKTH4yBA35tQuMOBxQ-9" value="callback" style="verticalAlign=bottom;endArrow=block;entryX=1;entryY=0;shadow=0;strokeWidth=1;rounded=0;" parent="1" source="piZKTH4yBA35tQuMOBxQ-6" target="piZKTH4yBA35tQuMOBxQ-4" edge="1">
          <mxGeometry relative="1" as="geometry">
            <mxPoint x="335" y="350" as="sourcePoint" />
          </mxGeometry>
        </mxCell>
        <mxCell id="piZKTH4yBA35tQuMOBxQ-10" value="return" style="verticalAlign=bottom;endArrow=open;dashed=1;endSize=8;exitX=1;exitY=0.95;shadow=0;strokeWidth=1;rounded=0;" parent="1" source="piZKTH4yBA35tQuMOBxQ-4" target="piZKTH4yBA35tQuMOBxQ-6" edge="1">
          <mxGeometry relative="1" as="geometry">
            <mxPoint x="335" y="407" as="targetPoint" />
          </mxGeometry>
        </mxCell>
      </root>
    </mxGraphModel>
  </diagram>
</mxfile>
